<?xml version="1.0" encoding="utf-8"?>
<!-- Generator: Adobe Illustrator 19.2.0, SVG Export Plug-In . SVG Version: 6.00 Build 0)  -->
<!DOCTYPE svg PUBLIC "-//W3C//DTD SVG 1.1//EN" "http://www.w3.org/Graphics/SVG/1.1/DTD/svg11.dtd">
<svg version="1.1" id="layer_1" xmlns="http://www.w3.org/2000/svg" xmlns:xlink="http://www.w3.org/1999/xlink" x="0px" y="0px"
	 viewBox="0 0 1024 721" enable-background="new 0 0 1024 721" xml:space="preserve">
<g id="change1">
	<g id="Lozenge">
		<g>
			<path fill="#E91D00" d="M1013,156.3c0,0-10-70.4-40.6-101.4C933.6,14.2,890,14,870.1,11.6C727.1,1.3,512.7,1.3,512.7,1.3h-0.4
				c0,0-214.4,0-357.4,10.3C135,14,91.4,14.2,52.6,54.9C22,85.9,12,156.3,12,156.3S1.8,238.9,1.8,321.6v77.5
				C1.8,481.8,12,564.4,12,564.4s10,70.4,40.6,101.4c38.9,40.7,89.9,39.4,112.6,43.7c81.7,7.8,347.3,10.3,347.3,10.3
				s214.6-0.3,357.6-10.7c20-2.4,63.5-2.6,102.3-43.3c30.6-31,40.6-101.4,40.6-101.4s10.2-82.7,10.2-165.3v-77.5
				C1023.2,238.9,1013,156.3,1013,156.3z M407,493l0-287l276,144L407,493z"/>
		</g>
	</g>
</g>
<g id="change2">
	<line opacity="0.12" fill-rule="evenodd" clip-rule="evenodd" fill="#FFFFFF" x1="649" y1="367.6" x2="649" y2="367.6"/>
</g>
<polygon fill="#FFFFFF" points="407,206 407,493 683,350 "/>
</svg>
