<?xml version="1.0" encoding="utf-8"?>
<!-- Generator: Adobe Illustrator 15.0.0, SVG Export Plug-In . SVG Version: 6.00 Build 0)  -->
<!DOCTYPE svg PUBLIC "-//W3C//DTD SVG 1.1//EN" "http://www.w3.org/Graphics/SVG/1.1/DTD/svg11.dtd">
<svg version="1.1" id="Layer_1" xmlns="http://www.w3.org/2000/svg" xmlns:xlink="http://www.w3.org/1999/xlink" x="0px" y="0px"
	 width="500px" height="500px" viewBox="0 0 500 500" enable-background="new 0 0 500 500" xml:space="preserve">
<g id="change1">
	<path fill="#3FC6EE" d="M494.485,248.011c0,134.896-109.35,244.243-244.242,244.243C115.352,492.254,6,382.904,6,248.011
		C6,113.12,115.352,3.768,250.243,3.768C385.137,3.768,494.485,113.12,494.485,248.011z"/>
</g>
<path fill="#FFFFFF" d="M404.326,163.333c-10.676,4.739-22.155,7.939-34.193,9.375c12.293-7.369,21.744-19.031,26.179-32.938
	c-11.487,6.824-24.226,11.784-37.793,14.455c-10.867-11.576-26.344-18.803-43.462-18.803c-32.88,0-59.534,26.656-59.534,59.529
	c0,4.674,0.522,9.209,1.537,13.563c-49.478-2.472-93.336-26.173-122.704-62.206c-5.113,8.808-8.051,19.03-8.051,29.939
	c0,20.649,10.506,38.883,26.468,49.544c-9.748-0.296-18.929-2.994-26.957-7.45v0.753c0,28.844,20.522,52.908,47.748,58.375
	c-4.993,1.357-10.267,2.103-15.683,2.103c-3.831,0-7.571-0.385-11.207-1.082c7.577,23.649,29.558,40.858,55.606,41.348
	c-20.362,15.963-46.022,25.487-73.932,25.487c-4.8,0-9.533-0.288-14.191-0.832c26.338,16.868,57.634,26.734,91.268,26.734
	c109.495,0,169.367-90.696,169.367-169.378c0-2.568-0.062-5.136-0.16-7.708C386.242,185.761,396.325,175.276,404.326,163.333z"/>
</svg>
